<?xml version="1.0" encoding="UTF-8" standalone="no"?>
<!-- Created with Inkscape (http://www.inkscape.org/) -->

<svg
   xmlns:dc="http://purl.org/dc/elements/1.1/"
   xmlns:cc="http://creativecommons.org/ns#"
   xmlns:rdf="http://www.w3.org/1999/02/22-rdf-syntax-ns#"
   xmlns:svg="http://www.w3.org/2000/svg"
   xmlns="http://www.w3.org/2000/svg"
   xmlns:sodipodi="http://sodipodi.sourceforge.net/DTD/sodipodi-0.dtd"
   xmlns:inkscape="http://www.inkscape.org/namespaces/inkscape"
   width="212.59842"
   height="212.59842"
   id="svg2"
   version="1.1"
   inkscape:version="0.91 r13725"
   sodipodi:docname="peak.svg">
  <defs
     id="defs4">
    <marker
       inkscape:stockid="Arrow2Mstart"
       orient="auto"
       refY="0.0"
       refX="0.0"
       id="Arrow2Mstart"
       style="overflow:visible">
      <path
         id="path3937"
         style="fill-rule:evenodd;stroke-width:0.62500000;stroke-linejoin:round"
         d="M 8.7185878,4.0337352 L -2.2072895,0.016013256 L 8.7185884,-4.0017078 C 6.9730900,-1.6296469 6.9831476,1.6157441 8.7185878,4.0337352 z "
         transform="scale(0.6) translate(0,0)" />
    </marker>
    <marker
       inkscape:stockid="Arrow2Mend"
       orient="auto"
       refY="0.0"
       refX="0.0"
       id="Arrow2Mend"
       style="overflow:visible;">
      <path
         id="path3940"
         style="fill-rule:evenodd;stroke-width:0.62500000;stroke-linejoin:round;"
         d="M 8.7185878,4.0337352 L -2.2072895,0.016013256 L 8.7185884,-4.0017078 C 6.9730900,-1.6296469 6.9831476,1.6157441 8.7185878,4.0337352 z "
         transform="scale(0.6) rotate(180) translate(0,0)" />
    </marker>
  </defs>
  <sodipodi:namedview
     id="base"
     pagecolor="#ffffff"
     bordercolor="#666666"
     borderopacity="1.0"
     inkscape:pageopacity="0.0"
     inkscape:pageshadow="2"
     inkscape:zoom="2.8"
     inkscape:cx="105.19846"
     inkscape:cy="107.44333"
     inkscape:document-units="px"
     inkscape:current-layer="layer1"
     showgrid="true"
     units="cm"
     inkscape:snap-center="false"
     inkscape:snap-bbox="true"
     inkscape:snap-bbox-midpoints="true"
     inkscape:snap-page="false"
     inkscape:window-width="1157"
     inkscape:window-height="812"
     inkscape:window-x="821"
     inkscape:window-y="111"
     inkscape:window-maximized="0"
     inkscape:snap-intersection-paths="true"
     inkscape:object-nodes="true"
     inkscape:snap-grids="false"
     inkscape:snap-global="true"
     inkscape:snap-others="false">
    <inkscape:grid
       type="xygrid"
       id="grid4200"
       units="cm"
       spacingx="17.716535"
       spacingy="17.716535" />
  </sodipodi:namedview>
  <metadata
     id="metadata7">
    <rdf:RDF>
      <cc:Work
         rdf:about="">
        <dc:format>image/svg+xml</dc:format>
        <dc:type
           rdf:resource="http://purl.org/dc/dcmitype/StillImage" />
        <dc:title />
      </cc:Work>
    </rdf:RDF>
  </metadata>
  <g
     inkscape:label="Ebene 1"
     inkscape:groupmode="layer"
     id="layer1"
     transform="translate(0,-839.76245)">
    <text
       xml:space="preserve"
       style="font-size:65.00091553%;font-style:normal;font-weight:normal;line-height:125%;letter-spacing:0px;word-spacing:0px;baseline-shift:sub;fill:#000000;fill-opacity:1;stroke:none;font-family:Bitstream Vera Sans"
       x="116.07143"
       y="71.884132"
       id="text3782"
       sodipodi:linespacing="125%"
       transform="translate(0,839.76245)"><tspan
         sodipodi:role="line"
         id="tspan3784"
         x="116.07143"
         y="71.884132" /></text>
    <path
       style="fill:none;fill-rule:evenodd;stroke:#000000;stroke-width:1;stroke-linecap:butt;stroke-linejoin:miter;stroke-miterlimit:4;stroke-dasharray:none;stroke-opacity:1"
       d="m 106.29921,875.19558 30.47322,23.01397"
       id="path4180"
       inkscape:connector-curvature="0"
       inkscape:transform-center-y="-18.671525"
       inkscape:transform-center-x="-15.23661"
       sodipodi:nodetypes="cc" />
    <path
       inkscape:transform-center-y="-3.4730951"
       inkscape:connector-curvature="0"
       id="path4182"
       d="m 106.29921,875.19558 88.02593,53.41083"
       style="fill:none;fill-rule:evenodd;stroke:#000000;stroke-width:1;stroke-linecap:butt;stroke-linejoin:miter;stroke-miterlimit:4;stroke-dasharray:none;stroke-opacity:1"
       inkscape:transform-center-x="-44.012965"
       sodipodi:nodetypes="cc" />
    <path
       inkscape:transform-center-x="-28.776355"
       style="fill:none;fill-rule:evenodd;stroke:#000000;stroke-width:1;stroke-linecap:butt;stroke-linejoin:miter;stroke-miterlimit:4;stroke-dasharray:none;stroke-opacity:1"
       d="m 106.29921,875.19558 57.55271,90.75395"
       id="path4184"
       inkscape:connector-curvature="0"
       inkscape:transform-center-y="15.19848"
       sodipodi:nodetypes="cc" />
    <path
       inkscape:transform-center-y="18.671636"
       inkscape:connector-curvature="0"
       id="path4186"
       d="M 106.29921,875.19558 75.826018,972.89583"
       style="fill:none;fill-rule:evenodd;stroke:#000000;stroke-width:1;stroke-linecap:butt;stroke-linejoin:miter;stroke-miterlimit:4;stroke-dasharray:none;stroke-opacity:1"
       inkscape:transform-center-x="15.236602"
       sodipodi:nodetypes="cc" />
    <path
       style="fill:none;fill-rule:evenodd;stroke:#000000;stroke-width:1;stroke-linecap:butt;stroke-linejoin:miter;stroke-miterlimit:4;stroke-dasharray:none;stroke-opacity:1"
       d="M 106.29921,875.19558 18.273322,942.49906"
       id="path4188"
       inkscape:connector-curvature="0"
       inkscape:transform-center-y="3.4732149"
       inkscape:transform-center-x="44.012943"
       sodipodi:nodetypes="cc" />
    <path
       inkscape:transform-center-x="28.77634"
       inkscape:transform-center-y="-15.198365"
       inkscape:connector-curvature="0"
       id="path4190"
       d="M 106.29921,875.19558 48.746528,905.15587"
       style="fill:none;fill-rule:evenodd;stroke:#000000;stroke-width:1;stroke-linecap:butt;stroke-linejoin:miter;stroke-miterlimit:4;stroke-dasharray:none;stroke-opacity:1"
       sodipodi:nodetypes="cc" />
    <path
       style="fill:none;fill-rule:evenodd;stroke:#000000;stroke-width:1;stroke-linecap:butt;stroke-linejoin:miter;stroke-miterlimit:4;stroke-dasharray:none;stroke-opacity:1"
       d="m 136.77243,898.20955 -88.025902,6.94632 -30.473206,37.34319 57.552696,30.39677 88.025902,-6.9463 30.47322,-37.34312 z"
       id="path4196"
       inkscape:connector-curvature="0"
       sodipodi:nodetypes="ccccccc" />
    <path
       inkscape:transform-center-y="-18.671525"
       inkscape:connector-curvature="0"
       id="path4202"
       d="m 106.29921,875.19558 30.47322,23.01397"
       style="fill:none;fill-rule:evenodd;stroke:#000000;stroke-width:1;stroke-linecap:butt;stroke-linejoin:miter;stroke-miterlimit:4;stroke-dasharray:none;stroke-opacity:1"
       inkscape:transform-center-x="-15.23661"
       sodipodi:nodetypes="cc" />
    <path
       inkscape:transform-center-x="-44.012965"
       style="fill:none;fill-rule:evenodd;stroke:#000000;stroke-width:1;stroke-linecap:butt;stroke-linejoin:miter;stroke-miterlimit:4;stroke-dasharray:none;stroke-opacity:1"
       d="m 106.29921,875.19558 88.02593,53.41083"
       id="path4204"
       inkscape:connector-curvature="0"
       inkscape:transform-center-y="-3.4730951"
       sodipodi:nodetypes="cc" />
    <path
       inkscape:transform-center-y="15.19848"
       inkscape:connector-curvature="0"
       id="path4206"
       d="m 106.29921,875.19558 57.55271,90.75395"
       style="fill:none;fill-rule:evenodd;stroke:#000000;stroke-width:1;stroke-linecap:butt;stroke-linejoin:miter;stroke-miterlimit:4;stroke-dasharray:none;stroke-opacity:1"
       inkscape:transform-center-x="-28.776355"
       sodipodi:nodetypes="cc" />
    <path
       style="fill:none;fill-rule:evenodd;stroke:#000000;stroke-width:1;stroke-linecap:butt;stroke-linejoin:miter;stroke-miterlimit:4;stroke-dasharray:none;stroke-opacity:1"
       d="M 106.29921,875.19558 75.826018,972.89583"
       id="path4208"
       inkscape:connector-curvature="0"
       inkscape:transform-center-y="18.671636"
       inkscape:transform-center-x="15.236602"
       sodipodi:nodetypes="cc" />
    <path
       inkscape:transform-center-x="44.012943"
       inkscape:transform-center-y="3.4732149"
       inkscape:connector-curvature="0"
       id="path4210"
       d="M 106.29921,875.19558 18.273322,942.49906"
       style="fill:none;fill-rule:evenodd;stroke:#000000;stroke-width:1;stroke-linecap:butt;stroke-linejoin:miter;stroke-miterlimit:4;stroke-dasharray:none;stroke-opacity:1"
       sodipodi:nodetypes="cc" />
    <path
       style="fill:none;fill-rule:evenodd;stroke:#000000;stroke-width:1;stroke-linecap:butt;stroke-linejoin:miter;stroke-miterlimit:4;stroke-dasharray:none;stroke-opacity:1"
       d="M 106.29921,875.19558 48.746528,905.15587"
       id="path4212"
       inkscape:connector-curvature="0"
       inkscape:transform-center-y="-15.198365"
       inkscape:transform-center-x="28.77634"
       sodipodi:nodetypes="cc" />
    <g
       id="g5022">
      <path
         sodipodi:nodetypes="ccccccc"
         style="fill:none;fill-rule:evenodd;stroke:#000000;stroke-width:1;stroke-linecap:butt;stroke-linejoin:miter;stroke-miterlimit:4;stroke-dasharray:1,2;stroke-opacity:1;stroke-dashoffset:0"
         d="m 136.77241,944.1516 -88.0259,6.94632 -30.473206,37.34313 57.552696,30.39685 88.0259,-6.9463 30.47322,-37.34314 z"
         id="path4214"
         inkscape:connector-curvature="0" />
      <path
         inkscape:connector-curvature="0"
         id="path5002"
         d="M 18.273304,988.44105 194.32512,974.54846"
         style="fill:none;fill-rule:evenodd;stroke:#000000;stroke-width:1;stroke-linecap:butt;stroke-linejoin:miter;stroke-opacity:1;stroke-miterlimit:4;stroke-dasharray:1,2;stroke-dashoffset:0" />
      <path
         inkscape:connector-curvature="0"
         id="path5004"
         d="m 75.826,1018.8379 60.94641,-74.6863"
         style="fill:none;fill-rule:evenodd;stroke:#000000;stroke-width:1;stroke-linecap:butt;stroke-linejoin:miter;stroke-opacity:1;stroke-miterlimit:4;stroke-dasharray:1,2;stroke-dashoffset:0" />
      <path
         inkscape:connector-curvature="0"
         id="path5006"
         d="M 163.8519,1011.8916 48.74651,951.09792"
         style="fill:none;fill-rule:evenodd;stroke:#000000;stroke-width:1;stroke-linecap:butt;stroke-linejoin:miter;stroke-opacity:1;stroke-miterlimit:4;stroke-dasharray:1,2;stroke-dashoffset:0" />
    </g>
    <g
       id="g5028">
      <path
         inkscape:connector-curvature="0"
         id="path5008"
         d="m 18.273304,988.44105 1.8e-5,-45.94199"
         style="fill:none;fill-rule:evenodd;stroke:#000000;stroke-width:1;stroke-linecap:butt;stroke-linejoin:miter;stroke-opacity:1;stroke-miterlimit:4;stroke-dasharray:1,3;stroke-dashoffset:0" />
      <path
         inkscape:connector-curvature="0"
         id="path5010"
         d="m 48.74651,951.09792 1.8e-5,-45.94205"
         style="fill:none;fill-rule:evenodd;stroke:#000000;stroke-width:1;stroke-linecap:butt;stroke-linejoin:miter;stroke-opacity:1;stroke-miterlimit:4;stroke-dasharray:1,3;stroke-dashoffset:0" />
      <path
         inkscape:connector-curvature="0"
         id="path5012"
         d="M 75.826018,972.89583 75.826,1018.8379"
         style="fill:none;fill-rule:evenodd;stroke:#000000;stroke-width:1;stroke-linecap:butt;stroke-linejoin:miter;stroke-opacity:1;stroke-miterlimit:4;stroke-dasharray:1,3;stroke-dashoffset:0" />
      <path
         inkscape:connector-curvature="0"
         id="path5014"
         d="m 163.8519,1011.8916 2e-5,-45.94207"
         style="fill:none;fill-rule:evenodd;stroke:#000000;stroke-width:1;stroke-linecap:butt;stroke-linejoin:miter;stroke-opacity:1;stroke-miterlimit:4;stroke-dasharray:1,3;stroke-dashoffset:0" />
      <path
         inkscape:connector-curvature="0"
         id="path5016"
         d="m 106.2992,981.49476 1e-5,-106.29918"
         style="fill:none;fill-rule:evenodd;stroke:#000000;stroke-width:1;stroke-linecap:butt;stroke-linejoin:miter;stroke-opacity:1;stroke-miterlimit:4;stroke-dasharray:1,3;stroke-dashoffset:0" />
      <path
         inkscape:connector-curvature="0"
         id="path5018"
         d="m 136.77241,944.1516 2e-5,-45.94205"
         style="fill:none;fill-rule:evenodd;stroke:#000000;stroke-width:1;stroke-linecap:butt;stroke-linejoin:miter;stroke-opacity:1;stroke-miterlimit:4;stroke-dasharray:1,3;stroke-dashoffset:0" />
      <path
         inkscape:connector-curvature="0"
         id="path5020"
         d="m 194.32512,974.54846 2e-5,-45.94205"
         style="fill:none;fill-rule:evenodd;stroke:#000000;stroke-width:1;stroke-linecap:butt;stroke-linejoin:miter;stroke-opacity:1;stroke-miterlimit:4;stroke-dasharray:1,3;stroke-dashoffset:0" />
    </g>
  </g>
</svg>
